{
  "ids": {
    "User": 1,
    "AccessToken": 1,
    "ACL": 1,
    "RoleMapping": 1,
    "Role": 1,
    "note": 1,
    "barcode": 2
  },
  "models": {
    "User": {},
    "AccessToken": {},
    "ACL": {},
    "RoleMapping": {},
    "Role": {},
    "note": {},
    "barcode": {
      "1": "{\"image\":\"string\",\"type\":\"string\",\"data\":\"string\",\"id\":1}"
    }
  }
}